module web-api

go 1.17

require (
	github.com/BurntSushi/toml v1.0.0
	github.com/dgrijalva/jwt-go v3.2.0+incompatible
	github.com/gorilla/mux v1.8.0
	github.com/lib/pq v1.10.4
	github.com/rs/cors v1.8.2
	github.com/sirupsen/logrus v1.8.1
	github.com/swaggo/http-swagger v1.2.0
	github.com/swaggo/swag v1.7.8
	golang.org/x/crypto v0.0.0-20220112180741-5e0467b6c7ce
)

require (
	github.com/KyleBanks/depth v1.2.1 // indirect
	github.com/PuerkitoBio/purell v1.1.1 // indirect
	github.com/PuerkitoBio/urlesc v0.0.0-20170810143723-de5bf2ad4578 // indirect
	github.com/go-openapi/jsonpointer v0.19.5 // indirect
	github.com/go-openapi/jsonreference v0.19.6 // indirect
	github.com/go-openapi/spec v0.20.4 // indirect
	github.com/go-openapi/swag v0.19.15 // indirect
	github.com/josharian/intern v1.0.0 // indirect
	github.com/mailru/easyjson v0.7.7 // indirect
	github.com/swaggo/files v0.0.0-20210815190702-a29dd2bc99b2 // indirect
	golang.org/x/net v0.0.0-20220121210141-e204ce36a2ba // indirect
	golang.org/x/sys v0.0.0-20220114195835-da31bd327af9 // indirect
	golang.org/x/text v0.3.7 // indirect
	golang.org/x/tools v0.1.8 // indirect
	gopkg.in/yaml.v2 v2.4.0 // indirect
)
